<svg xmlns="http://www.w3.org/2000/svg" xmlns:xlink="http://www.w3.org/1999/xlink" width="37" height="42" viewBox="0 0 37 42">
    <defs>
        <path id="a" d="m10 6 8.297 21.485 8.076-21.485z"/>
        <filter id="b" width="307.7%" height="258.2%" x="-103.8%" y="-60.5%">
            <feOffset dx="0" dy="4" in="SourceAlpha" result="shadowOffsetOuter1"/>
            <feGaussianBlur in="shadowOffsetOuter1" result="shadowBlurOuter1" stdDeviation="5"/>
            <feColorMatrix in="shadowBlurOuter1" type="matrix" values="0 0 0 0 0   0 0 0 0 0   0 0 0 0 0  0 0 0 0.325747283 0"/>
        </filter>
    </defs>
    <g fill="none" fill-rule="evenodd">
        <use fill="#000" filter="url(#b)" xlink:href="#a"/>
        <use fill="#fff" fill-rule="evenodd" xlink:href="#a"/>
    </g>
</svg>
