<svg xmlns="http://www.w3.org/2000/svg" width="30" height="23" viewBox="0 0 30 23">
    <g fill="none" fill-rule="evenodd" stroke="#ffe0e0" stroke-linejoin="bevel" stroke-width="3">
        <path d="m0 2h30"/>
        <path d="m0 11.25h30"/>
        <path d="m0 21.25h30"/>
    </g>
</svg>
